{
    "$schema": "https://schema.management.azure.com/schemas/2015-01-01/deploymentParameters.json#",
    "contentVersion": "1.0.0.0",
    "parameters": {
        "registryName": {
            "value": "usatask3acr"
        },
        "registryLocation": {
            "value": "northeurope"
        },
        "registrySku": {
            "value": "Basic"
        },
        "adminUserEnabled": {
            "value": true
        }
    }
}