{
    "$schema": "https://schema.management.azure.com/schemas/2015-01-01/deploymentTemplate.json#",
    "contentVersion": "1.0.0.0",
    "parameters": {},
    "variables": {},
    "resources": [
        {
            "apiVersion": "2017-05-10",
            "name": "vnet_deployment",
            "type": "Microsoft.Resources/deployments",
            "properties": {
                "mode": "Incremental",
                "templateLink": {
                    "uri": "https://bitbucket.org/michalbujok/tap_task3/raw/master/vNet/vnet_template.json",
                    "contentVersion": "1.0.0.0"
                },
                "parametersLink": {
                    "uri": "https://bitbucket.org/michalbujok/tap_task3/raw/master/vNet/vnet_parameters.json",
                    "contentVersion": "1.0.0.0"
                }
            }
        },
        {
            "apiVersion": "2017-05-10",
            "name": "availabilitySet_deployment",
            "type": "Microsoft.Resources/deployments",
            "properties": {
                "mode": "Incremental",
                "templateLink": {
                    "uri": "https://bitbucket.org/michalbujok/tap_task3/raw/master/availabilitySet/availabilitySet_template.json",
                    "contentVersion": "0.0.1.0"
                }
            },
            "dependsOn": [
                "vnet_deployment"
            ]
        },
        {
            "apiVersion": "2017-05-10",
            "name": "publicLoadBalancer_deployment",
            "type": "Microsoft.Resources/deployments",
            "properties": {
                "mode": "Incremental",
                "templateLink": {
                    "uri": "https://bitbucket.org/michalbujok/tap_task3/raw/master/publicLoadBalancer/publicLoadBalancer_template.json",
                    "contentVersion": "1.0.0.0"
                }
            },
            "dependsOn": [
                "availabilitySet_deployment",
                "vnet_deployment"
            ]
        },
        {
            "apiVersion": "2017-05-10",
            "name": "midVM_deployment",
            "type": "Microsoft.Resources/deployments",
            "properties": {
                "mode": "Incremental",
                "templateLink": {
                    "uri": "https://bitbucket.org/michalbujok/tap_task3/raw/master/midVm/midVm_template.json",
                    "contentVersion": "1.0.0.0"
                },
                "parametersLink": {
                    "uri": "https://bitbucket.org/michalbujok/tap_task3/raw/master/midVm/midVm_parameters.json",
                    "contentVersion": "1.0.0.0"
                }
            },
            "dependsOn": [
                "availabilitySet_deployment",
                "publicLoadBalancer_deployment",
                "vnet_deployment",
                "keyVault_deployment",
                "dbVM_deployment"
           ]
        },
        {
            "apiVersion": "2017-05-10",
            "name": "dbVM_deployment",
            "type": "Microsoft.Resources/deployments",
            "properties": {
                "mode": "Incremental",
                "templateLink": {
                    "uri": "https://bitbucket.org/michalbujok/tap_task3/raw/master/mongodbvm/tap_db_template.json",
                    "contentVersion": "1.0.0.0"
                },
                "parametersLink": {
                    "uri": "https://bitbucket.org/michalbujok/tap_task3/raw/master/mongodbvm/tap_db_template_parameters.json",
                    "contentVersion": "1.0.0.0"
                }
            },
            "dependsOn": [
                "availabilitySet_deployment",
                "publicLoadBalancer_deployment",
                "vnet_deployment",
                "keyVault_deployment"                
            ]
        },
        {
            "apiVersion": "2017-05-10",
            "name": "keyVault_deployment",
            "type": "Microsoft.Resources/deployments",
            "properties": {
                "mode": "Incremental",
                "templateLink": {
                    "uri": "https://bitbucket.org/michalbujok/tap_task3/raw/master/KeyVault/tap_keyvault_template.json",
                    "contentVersion": "1.0.0.0"
                },
                "parametersLink": {
                    "uri": "https://bitbucket.org/michalbujok/tap_task3/raw/master/KeyVault/tap_keyvault_template_parameters.json",
                    "contentVersion": "1.0.0.0"
                }
            }
        },
        {
            "apiVersion": "2017-05-10",
            "name": "appserviceplan_deployment",
            "type": "Microsoft.Resources/deployments",
            "properties": {
                "mode": "Incremental",
                "templateLink": {
                    "uri": "https://bitbucket.org/michalbujok/tap_task3/raw/master/appserviceplan/template.json",
                    "contentVersion": "1.0.0.0"
                },
                "parameters": {
                    "aspname": {
                        "value": "usa-task3-asp"
                    },
                    "hostingEnvironment": {
                        "value": ""
                    },
                    "location": {
                        "value": "West Europe"
                    },
                    "sku": {
                        "value": "Standard"
                    },
                    "skuCode": {
                        "value": "S1"
                    },
                    "workerSize": {
                        "value": "0"
                    },
                    "workerSizeId": {
                        "value": "0"
                    },
                    "numberOfWorkers": {
                        "value": "1"
                    }
                }
            }
        },
        {
            "apiVersion": "2017-05-10",
            "name": "webappcontainer_deployment",
            "type": "Microsoft.Resources/deployments",
            "properties": {
                "mode": "Incremental",
                "templateLink": {
                    "uri": "https://bitbucket.org/michalbujok/tap_task3/raw/master/webappcontainer/template.json",
                    "contentVersion": "1.0.0.0"
                },
                "parameters": {
                    "webappname": {
                        "value": "usa-task3-webapp"
                    },
                    "dockerRegistryUrl": {
                        "value": "https://usatask3ar.azurecr.io"
                    },
                    "dockerRegistryUsername": {
                        "value": "usatask3acr"
                    },
                    "dockerRegistryPassword": {
                        "value": "3pan/figHrKGrlGXQDY9B2Fc9iIiIGGO"
                    },
                    "hostingPlanName": {
                        "value": "usa-task3-asp"
                    },
                    "hostingEnvironment": {
                        "value": ""
                    },
                    "location": {
                        "value": "[resourceGroup().location]"
                    },
                    "serverFarmResourceGroup": {
                        "value": "[resourceGroup().name]"
                    },
                    "subscriptionId": {
                        "value": "8662649f-314e-40f0-a3d9-6453ad460fbf"
                    }
                }
            },
            "dependsOn": [
                "appserviceplan_deployment"
            ]
        } 
    ]
}