{
    "$schema": "https://schema.management.azure.com/schemas/2015-01-01/deploymentTemplate.json#",
    "contentVersion": "1.0.0.0",
    "parameters": {},
    "variables": {},
    "resources": [
        {
            "apiVersion": "2017-05-10",
            "name": "keyvault_deployment",
            "type": "Microsoft.Resources/deployments",
            "properties": {
                "mode": "Incremental",
                "templateLink": {
                    "uri": "https://bitbucket.org/michalbujok/tap_task3/raw/6210b856b67670ea0af9a84b2b04334be3434481/KeyVault/tap_keyvault_template.json",
                    "contentVersion": "1.0.0.0"
                },
                "parametersLink": {
                    "uri": "https://bitbucket.org/michalbujok/tap_task3/src/master/KeyVault/tap_keyvault_template_parameters.json",
                    "contentVersion": "1.0.0.0"
                }
            }
        },
        {
            "apiVersion": "2017-05-10",
            "name": "midVM_deployment",
            "type": "Microsoft.Resources/deployments",
            "properties": {
                "mode": "Incremental",
                "templateLink": {
                    "uri": "https://bitbucket.org/michalbujok/tap_task3/src/master/midVm/midVm_template.json",
                    "contentVersion": "1.0.0.0"
                },
                "parametersLink": {
                    "uri": "https://bitbucket.org/michalbujok/tap_task3/raw/1faff022a23e7c4177764332e777125273baf2c1/midVm/midVm_parameters.jsonn",
                    "contentVersion": "1.0.0.0"
                }
            }
        },
        {
            "apiVersion": "2017-05-10",
            "name": "db_deployment",
            "type": "Microsoft.Resources/deployments",
            "properties": {
                "mode": "Incremental",
                "templateLink": {
                    "uri": "https://bitbucket.org/michalbujok/tap_task3/raw/2cd6de68835e99047bcb69c2d7841e4fae65d7ab/mongodbvm/tap_db_template.json",
                    "contentVersion": "1.0.0.0"
                },
                "parametersLink": {
                    "uri": "https://bitbucket.org/michalbujok/tap_task3/raw/1faff022a23e7c4177764332e777125273baf2c1/mongodbvm/tap_db_template_parameters.json",
                    "contentVersion": "1.0.0.0"
                },
                "dependsOn": [
                    "keyvault_deployment"
                ]
            }
        },
        {
            "apiVersion": "2017-05-10",
            "name": "appserviceplan_deployment",
            "type": "Microsoft.Resources/deployments",
            "properties": {
                "mode": "Incremental",
                "templateLink": {
                    "uri": "https://bitbucket.org/michalbujok/tap_task3/raw/1faff022a23e7c4177764332e777125273baf2c1/appserviceplan/template.json",
                    "contentVersion": "1.0.0.0"
                },
                "parameters": {
                    "aspname": {
                        "value": "usa-task3-asp"
                    },
                    "hostingEnvironment": {
                        "value": ""
                    },
                    "location": {
                        "value": "West Europe"
                    },
                    "sku": {
                        "value": "Standard"
                    },
                    "skuCode": {
                        "value": "S1"
                    },
                    "workerSize": {
                        "value": "0"
                    },
                    "workerSizeId": {
                        "value": "0"
                    },
                    "numberOfWorkers": {
                        "value": "1"
                    }
                }
            }
        },
        {
            "apiVersion": "2017-05-10",
            "name": "webappcontainer_deployment",
            "type": "Microsoft.Resources/deployments",
            "properties": {
                "mode": "Incremental",
                "templateLink": {
                    "uri": "https://bitbucket.org/michalbujok/tap_task3/raw/1faff022a23e7c4177764332e777125273baf2c1/webappcontainer/template.json",
                    "contentVersion": "1.0.0.0"
                },
                "parameters": {
                    "webappname": {
                        "value": "usa-task3-webapp-test"
                    },
                    "dockerRegistryUrl": {
                        "value": "https://usatask2cr.azurecr.io"
                    },
                    "dockerRegistryUsername": {
                        "value": "usatask2cr"
                    },
                    "dockerRegistryPassword": {
                        "value": "3pan/figHrKGrlGXQDY9B2Fc9iIiIGGO"
                    },
                    "hostingPlanName": {
                        "value": "usa-task3-asp"
                    },
                    "hostingEnvironment": {
                        "value": ""
                    },
                    "location": {
                        "value": "North Europe"
                    },
                    "serverFarmResourceGroup": {
                        "value": "MZ_TEST"
                    },
                    "subscriptionId": {
                        "value": "8662649f-314e-40f0-a3d9-6453ad460fbf"
                    }
                }
            },
            "dependsOn": [
                "appserviceplan_deployment"
            ]
        }
    ]
}