{
  "$schema": "https://schema.management.azure.com/schemas/2015-01-01/deploymentTemplate.json#",
  "contentVersion": "1.0.0.0",
  "parameters": {
    "keyVaultName": {
      "type": "string",
      "defaultValue": "usa-task3-keyVault",
      "metadata": {
        "description": "Name of the Key Vault"
      }
    },
    "tenantId": {
      "type": "string",
      "defaultValue": "[subscription().tenantId]",
      "metadata": {
        "description": "Tenant Id for the subscription and use assigned access to the vault. Available from the Get-AzureRMSubscription PowerShell cmdlet"
       }
     },
    "vaultSku": {
      "type": "string",
      "defaultValue": "Standard",
      "allowedValues": [
        "Standard",
        "Premium"
      ],
      "metadata": {
        "description": "SKU for the vault"
      }
    },
    "enabledForDeployment": {
      "type": "bool",
      "defaultValue": true,
      "metadata": {
        "description": "Specifies if the vault is enabled for VM or Service Fabric deployment"
      }
    },
    "enabledForTemplateDeployment": {
      "type": "bool",
      "defaultValue": true,
      "metadata": {
        "description": "Specifies if the vault is enabled for ARM template deployment"
      }
    },
    "enableVaultForVolumeEncryption": {
      "type": "bool",
      "defaultValue": false,
      "metadata": {
        "description": "Specifies if the vault is enabled for volume encryption"
      }
    },
    "secretsObject": {
      "type": "secureObject",
      "defaultValue": "{}",
      "metadata": {
        "description": "all secrets {\"secretName\":\"\",\"secretValue\":\"\"} wrapped in a secure object"
      }
    },
    "location": {
      "type": "string",
      "defaultValue": "[resourceGroup().location]",
      "metadata": {
        "description": "Location for all resources."
      }
    },
    "aclObjectId": {
      "type": "string",
      "defaultValue": "8cb89a9b-e327-469d-b663-37aa58b13fe5"
    }
  },
  "resources": [
    {
      "type": "Microsoft.KeyVault/vaults",
      "name": "[parameters('keyVaultName')]",
      "apiVersion": "2016-10-01",
      "location": "[parameters('location')]",
      "tags": {},
      "properties": {
        "enabledForDeployment": "[parameters('enabledForDeployment')]",
        "enabledForTemplateDeployment": "[parameters('enabledForTemplateDeployment')]",
        "enabledForVolumeEncryption": "[parameters('enableVaultForVolumeEncryption')]",
        "tenantId": "[parameters('tenantId')]",
        "accessPolicies": [
          {
            "tenantId": "[parameters('tenantId')]",
            "objectId": "[parameters('aclObjectId')]",
            "permissions": {
                "keys": [
                    "get",
                    "list",
                    "update",
                    "create",
                    "import",
                    "delete",
                    "recover",
                    "backup",
                    "restore",
                    "decrypt",
                    "encrypt",
                    "unwrapKey",
                    "wrapKey",
                    "verify",
                    "sign",
                    "purge"
                ],
                "secrets": [
                    "get",
                    "list",
                    "set",
                    "delete",
                    "recover",
                    "backup",
                    "restore",
                    "purge"
                ],
                "certificates": [
                    "get",
                    "list",
                    "update",
                    "create",
                    "import",
                    "delete",
                    "recover",
                    "backup",
                    "restore",
                    "manageContacts",
                    "manageIssuers",
                    "getIssuers",
                    "listIssuers",
                    "setIssuers",
                    "deleteIssuers",
                    "purge"
                ]
            }  
          }
        ],
        "sku": {
          "name": "[parameters('vaultSku')]",
          "family": "A"
        }
      }
    },
    {
      "type": "Microsoft.KeyVault/vaults/secrets",
      "name": "[concat(parameters('keyVaultName'), '/', parameters('secretsObject').secrets[copyIndex()].secretName)]",
      "apiVersion": "2016-10-01",
      "properties": {
        "value": "[parameters('secretsObject').secrets[copyIndex()].secretValue]"
      },
      "dependsOn": [
        "[concat('Microsoft.KeyVault/vaults/', parameters('keyVaultName'))]"
      ],
      "copy": {
        "name": "secretsCopy",
        "count": "[length(parameters('secretsObject').secrets)]"
      }
    }
  ]
}